################### CAT accounts created via automated scripts ###################
| FIRST NAME | LAST NAME | DATE OF BIRTH | EMAIL ADDRESS | PRI NUMBER | PASSWORD |
##################################################################################

ujgeurpt, TESTACCOUNT, 11/2/1937, oiod@canada.ca, 82095646, Random1!
ifai, TESTACCOUNT, 5/11/1983, 69mz86uo4otnqt@canada.ca, 36762047, Random1!
lcgykuiu, TESTACCOUNT, 18/8/2007, fnjask5tdse2bktm@canada.ca, 27644261, Random1!
wtljebtyhivh, TESTACCOUNT, 13/2/1904, mku735tfeq3@canada.ca, 43941987, Random1!
fffiixq, TESTACCOUNT, 16/7/2012, p02c0@canada.ca, 13475273, Random1!
xaupfs, TESTACCOUNT, 5/8/1943, 760ca4q@canada.ca, 00372799, Random1!
qspialol, TESTACCOUNT, 28/11/1967, dmc1ch3epw@canada.ca, 81462479, Random1!
donzd, TESTACCOUNT, 22/9/1966, xhr7j@canada.ca, 09531016, Random1!
crpjcwws, TESTACCOUNT, 26/5/1978, ah3apubwrdz@canada.ca, 76572440, Random1!
rdzxvpyil, TESTACCOUNT, 21/4/1920, jybeaj0zhs@canada.ca, 95722884, Random1!
yushetabgi, TESTACCOUNT, 21/9/1929, uzb9z3@canada.ca, 84978932, Random1!
egdfka, TESTACCOUNT, 18/5/1927, vw43ehogx4r@canada.ca, 09790386, Random1!
fsjkd, TESTACCOUNT, 20/12/1924, beuco84h5e9@canada.ca, 46214153, Random1!
zzteiige, TESTACCOUNT, 7/3/1912, a52gw1s49obizh@canada.ca, 85593513, Random1!
qlkwy, TESTACCOUNT, 10/2/1901, 00xwdngcitmlx7@canada.ca, 45583483, Random1!
vnedlql, TESTACCOUNT, 23/8/2002, m6a4s@canada.ca, 07870329, Random1!
bzfbwwwmqw, TESTACCOUNT, 23/4/1941, 7ro9bg07@canada.ca, 23565157, Random1!
xaqir, TESTACCOUNT, 17/1/1944, 7t0hvb@canada.ca, 13094950, Random1!
domzk, TESTACCOUNT, 23/3/2010, shc8kuemcucs@canada.ca, 50560424, Random1!
ittqytt, TESTACCOUNT, 25/8/1959, vckyc@canada.ca, 12260183, Random1!
wqaxvg, TESTACCOUNT, 15/1/1974, bgjisx@canada.ca, 32378110, Random1!
iwdxkjwqsib, TESTACCOUNT, 10/5/1977, cwso6y8@canada.ca, 01889767, Random1!
tcpc, TESTACCOUNT, 12/7/1907, e87wpoouej@canada.ca, 00965732, Random1!
hsszaty, TESTACCOUNT, 7/9/1975, 6toahhezn7b@canada.ca, 46086787, Random1!
kvzttuud, TESTACCOUNT, 13/1/1945, 2k1pv@canada.ca, 90310815, Random1!
eleeusnago, TESTACCOUNT, 3/3/1960, zosvli@canada.ca, 60724066, Random1!
udbvbyb, TESTACCOUNT, 11/6/1918, 9vb2ng@canada.ca, 50663432, Random1!
gbjqyndkx, TESTACCOUNT, 15/9/1910, c9j8s2moxu@canada.ca, 38810479, Random1!
fotjl, TESTACCOUNT, 10/6/1960, tcow8868pxni8y8k@canada.ca, 34377988, Random1!
xegyrxhumn, TESTACCOUNT, 15/8/1975, 64l58zj2d5mjrd8@canada.ca, 27997057, Random1!
hpvgaevk, TESTACCOUNT, 24/5/1960, sfxw@canada.ca, 99189656, Random1!
jpka, TESTACCOUNT, 17/1/1945, dulopt6wbzva4nq@canada.ca, 47914677, Random1!
ryfujcqhshay, TESTACCOUNT, 16/2/1910, pdoy@canada.ca, 49739517, Random1!
zbblnlnwg, TESTACCOUNT, 12/5/2000, eynsa9o@canada.ca, 28465779, Random1!
wzauibe, TESTACCOUNT, 28/11/2014, acl0nppejdtwz1lp@canada.ca, 75310241, Random1!
vpstqye, TESTACCOUNT, 21/4/1969, coauk14e980@canada.ca, 76158711, Random1!
avrlwnlfu, TESTACCOUNT, 14/7/1933, ixwuy7cmhge@canada.ca, 35723167, Random1!
nsfvlc, TESTACCOUNT, 5/2/1993, ff09603@canada.ca, 56946297, Random1!
sttlp, TESTACCOUNT, 3/4/1936, cxr3udm@canada.ca, 54236360, Random1!
blpkklxv, TESTACCOUNT, 10/5/1930, so32o1ln84zfz4x1@canada.ca, 92755555, Random1!
sdhowgpcjic, TESTACCOUNT, 24/2/1970, c11cf9xkengfur@canada.ca, 77757404, Random1!
tsuriz, TESTACCOUNT, 28/12/1921, f3zm@canada.ca, 27565412, Random1!
credjd, TESTACCOUNT, 26/9/1912, a1miwlxo14e1@canada.ca, 33249778, Random1!
pfctncc, TESTACCOUNT, 8/4/1922, sywrdrmf0@canada.ca, 27225944, Random1!
